What NBA 2K Really Values in Its Top Players
…
top_50 |>
  select(name, archetype, overall, cluster) |>
  arrange(cluster)

# A tibble: 50 × 4
   name                  archetype                      overall cluster
   <chr>                 <chr>                            <dbl>   <int>
 1 Nikola Jokic          2-Way 3-Level Point Center          98       1
 2 Joel Embiid           2-Way 3-Level Scorer                95       1
 3 Karl-Anthony Towns    Inside-Out Board Hunter             91       1
 4 Paolo Banchero        Shot-Creating 3-Level Threat        90       1
 5 Domantas Sabonis      3-Level Scoring Playmaker           89       1
 6 Pascal Siakam         2-Way Slashing Stretch Four         88       1
 7 Alperen Sengun        Inside The Arc Board Hunter         87       1
 8 Julius Randle         Swiss Army Knife                    86       1
 9 Giannis Antetokounmpo 2-Way Inside-The-Arc Playmaker      97       2
10 Jayson Tatum          All-Around Star                     96       2
# ℹ 40 more rows
…
